{"panels":[{"id":"cmju8jnpj002lbyb0iqz9hra3","reference":"BCB-BAS-82011","name":"Aggloméré hydrofuge 1 face mélamine blanc","description":null,"thickness":[38],"defaultLength":4150,"defaultWidth":2070,"defaultThickness":38,"isVariableLength":false,"pricePerM2":null,"pricePerMl":null,"pricePerUnit":null,"productType":"MELAMINE","material":"Aggloméré","finish":"Hydrofuge","colorCode":null,"imageUrl":"https://www.bcommebois.fr/media/catalog/product/cache/f9668229f167cf8faa6a2cd98372eca0/a/g/agglomere-hydrofuge-pantyr-p3.png","isActive":true,"stockStatus":"Sur commande","manufacturerRef":null,"createdAt":"2025-12-31T16:33:33.895Z","updatedAt":"2026-01-03T14:36:35.212Z","catalogue":{"name":"Bouney"},"category":{"name":"Agglomérés hydrofuges","slug":"basiques-agglomeres-hydrofuges","parent":{"name":"Panneaux Basiques & Techniques","slug":"panneaux-basiques-techniques"}}},{"id":"cmju8jnkv002jbyb0x7uyjqtd","reference":"BCB-BAS-82012","name":"Aggloméré hydrofuge 1 face mélamine blanc","description":null,"thickness":[38],"defaultLength":3060,"defaultWidth":2070,"defaultThickness":38,"isVariableLength":false,"pricePerM2":16.81,"pricePerMl":null,"pricePerUnit":null,"productType":"MELAMINE","material":"Aggloméré","finish":"Hydrofuge","colorCode":null,"imageUrl":"https://www.bcommebois.fr/media/catalog/product/cache/f9668229f167cf8faa6a2cd98372eca0/a/g/agglomere-hydrofuge-pantyr-p3.png","isActive":true,"stockStatus":"EN STOCK","manufacturerRef":null,"createdAt":"2025-12-31T16:33:33.727Z","updatedAt":"2026-01-03T14:36:26.527Z","catalogue":{"name":"Bouney"},"category":{"name":"Agglomérés hydrofuges","slug":"basiques-agglomeres-hydrofuges","parent":{"name":"Panneaux Basiques & Techniques","slug":"panneaux-basiques-techniques"}}},{"id":"cmju8jnrj002nbyb0ys7py3ms","reference":"BCB-BAS-92620","name":"Aggloméré hydrofuge 1 face mélamine blanc","description":null,"thickness":[38],"defaultLength":4150,"defaultWidth":1850,"defaultThickness":38,"isVariableLength":false,"pricePerM2":23.95,"pricePerMl":null,"pricePerUnit":null,"productType":"MELAMINE","material":"Aggloméré","finish":"Hydrofuge","colorCode":null,"imageUrl":"https://www.bcommebois.fr/media/catalog/product/cache/f9668229f167cf8faa6a2cd98372eca0/a/g/agglomere-hydrofuge-pantyr-p3.png","isActive":true,"stockStatus":"EN STOCK","manufacturerRef":null,"createdAt":"2025-12-31T16:33:33.967Z","updatedAt":"2026-01-03T14:36:35.276Z","catalogue":{"name":"Bouney"},"category":{"name":"Agglomérés hydrofuges","slug":"basiques-agglomeres-hydrofuges","parent":{"name":"Panneaux Basiques & Techniques","slug":"panneaux-basiques-techniques"}}},{"id":"cmjtw2kmg0099bylw0e6rd8g6","reference":"BCB-84360","name":"Egger blanc albâtre ST9","description":null,"thickness":[0.8],"defaultLength":3050,"defaultWidth":1310,"defaultThickness":0.8,"isVariableLength":false,"pricePerM2":16.1,"pricePerMl":null,"pricePerUnit":null,"productType":"MELAMINE","material":"Stratifié","finish":"ST9","colorCode":null,"imageUrl":"https://www.bcommebois.fr/media/catalog/product/cache/9d39fcb1acae106e387daff4b9316804/8/4/84360-81301-81180-u104-blanc-albatre-egger.jpg","isActive":true,"stockStatus":"EN STOCK","manufacturerRef":"U104","createdAt":"2025-12-31T10:44:21.352Z","updatedAt":"2026-01-06T22:29:37.175Z","catalogue":{"name":"Bouney"},"category":{"name":"Unis","slug":"unis","parent":{"name":"Stratifiés - Mélaminés - Compacts - Chants","slug":"stratifies-melamines-compacts-chants"}}},{"id":"cmjtw2kka0097bylwdlctwp4r","reference":"BCB-81180","name":"Egger blanc albâtre ST9","description":null,"thickness":[19],"defaultLength":2800,"defaultWidth":2070,"defaultThickness":19,"isVariableLength":false,"pricePerM2":11.42,"pricePerMl":null,"pricePerUnit":null,"productType":"MELAMINE","material":"Stratifié","finish":"ST9","colorCode":null,"imageUrl":"https://www.bcommebois.fr/media/catalog/product/cache/9d39fcb1acae106e387daff4b9316804/8/4/84360-81301-81180-u104-blanc-albatre-egger.jpg","isActive":true,"stockStatus":"EN STOCK","manufacturerRef":"U104","createdAt":"2025-12-31T10:44:21.274Z","updatedAt":"2026-01-06T22:29:36.971Z","catalogue":{"name":"Bouney"},"category":{"name":"Unis","slug":"unis","parent":{"name":"Stratifiés - Mélaminés - Compacts - Chants","slug":"stratifies-melamines-compacts-chants"}}},{"id":"cmk1bkyka0177byd8lq0622qs","reference":"BCB-93653","name":"Egger blanc alpin","description":null,"thickness":[0.8],"defaultLength":3050,"defaultWidth":1310,"defaultThickness":0.8,"isVariableLength":false,"pricePerM2":20.95,"pricePerMl":null,"pricePerUnit":null,"productType":"MELAMINE","material":"Stratifié","finish":"ST2","colorCode":null,"imageUrl":"https://www.bcommebois.fr/media/catalog/product/cache/9d39fcb1acae106e387daff4b9316804/8/1/81282-84356-84357-82558-84598-81915-w1100-blanc-alpin-egger.jpg","isActive":true,"stockStatus":"EN STOCK","manufacturerRef":"W1100","createdAt":"2026-01-05T15:32:56.698Z","updatedAt":"2026-01-06T22:37:11.035Z","catalogue":{"name":"Bouney"},"category":null},{"id":"cmk1bkyds016zbyd8b4orpyqp","reference":"BCB-84356","name":"Egger blanc alpin","description":null,"thickness":[0.8],"defaultLength":3050,"defaultWidth":1310,"defaultThickness":0.8,"isVariableLength":false,"pricePerM2":17.86,"pricePerMl":null,"pricePerUnit":null,"productType":"MELAMINE","material":"Stratifié","finish":"ST2","colorCode":null,"imageUrl":"https://www.bcommebois.fr/media/catalog/product/cache/9d39fcb1acae106e387daff4b9316804/8/1/81282-84356-84357-82558-84598-81915-w1100-blanc-alpin-egger.jpg","isActive":true,"stockStatus":"EN STOCK","manufacturerRef":"W1100","createdAt":"2026-01-05T15:32:56.464Z","updatedAt":"2026-01-06T22:37:10.255Z","catalogue":{"name":"Bouney"},"category":null},{"id":"cmk1bkybz016xbyd81gpqvf5c","reference":"BCB-81915","name":"Egger blanc alpin","description":null,"thickness":[19],"defaultLength":2800,"defaultWidth":2070,"defaultThickness":19,"isVariableLength":false,"pricePerM2":31.59,"pricePerMl":null,"pricePerUnit":null,"productType":"MELAMINE","material":"Stratifié","finish":"ST2","colorCode":null,"imageUrl":"https://www.bcommebois.fr/media/catalog/product/cache/9d39fcb1acae106e387daff4b9316804/8/1/81282-84356-84357-82558-84598-81915-w1100-blanc-alpin-egger.jpg","isActive":true,"stockStatus":"EN STOCK","manufacturerRef":"W1100","createdAt":"2026-01-05T15:32:56.399Z","updatedAt":"2026-01-06T22:37:10.056Z","catalogue":{"name":"Bouney"},"category":null},{"id":"cmk1bky89016tbyd8c6287nyv","reference":"BCB-81282","name":"Egger blanc alpin","description":null,"thickness":[19],"defaultLength":2800,"defaultWidth":2070,"defaultThickness":19,"isVariableLength":false,"pricePerM2":13.59,"pricePerMl":null,"pricePerUnit":null,"productType":"MELAMINE","material":"Stratifié","finish":"ST2","colorCode":null,"imageUrl":"https://www.bcommebois.fr/media/catalog/product/cache/9d39fcb1acae106e387daff4b9316804/8/1/81282-84356-84357-82558-84598-81915-w1100-blanc-alpin-egger.jpg","isActive":true,"stockStatus":"EN STOCK","manufacturerRef":"W1100","createdAt":"2026-01-05T15:32:56.265Z","updatedAt":"2026-01-06T22:37:09.581Z","catalogue":{"name":"Bouney"},"category":null},{"id":"cmk1bkyh00173byd81i39qme7","reference":"BCB-84598","name":"Egger blanc alpin","description":null,"thickness":[0.8],"defaultLength":3050,"defaultWidth":1310,"defaultThickness":0.8,"isVariableLength":false,"pricePerM2":21.98,"pricePerMl":null,"pricePerUnit":null,"productType":"MELAMINE","material":"Stratifié","finish":"ST2","colorCode":null,"imageUrl":"https://www.bcommebois.fr/media/catalog/product/cache/9d39fcb1acae106e387daff4b9316804/8/1/81282-84356-84357-82558-84598-81915-w1100-blanc-alpin-egger.jpg","isActive":true,"stockStatus":"EN STOCK","manufacturerRef":"W1100","createdAt":"2026-01-05T15:32:56.581Z","updatedAt":"2026-01-06T22:37:10.654Z","catalogue":{"name":"Bouney"},"category":null},{"id":"cmk1bkya7016vbyd8n7s311er","reference":"BCB-82558","name":"Egger blanc alpin","description":null,"thickness":[19],"defaultLength":2800,"defaultWidth":2070,"defaultThickness":19,"isVariableLength":false,"pricePerM2":31.13,"pricePerMl":null,"pricePerUnit":null,"productType":"MELAMINE","material":"Stratifié","finish":"ST2","colorCode":null,"imageUrl":"https://www.bcommebois.fr/media/catalog/product/cache/9d39fcb1acae106e387daff4b9316804/8/1/81282-84356-84357-82558-84598-81915-w1100-blanc-alpin-egger.jpg","isActive":true,"stockStatus":"EN STOCK","manufacturerRef":"W1100","createdAt":"2026-01-05T15:32:56.336Z","updatedAt":"2026-01-06T22:37:09.859Z","catalogue":{"name":"Bouney"},"category":null},{"id":"cmk1bkyfe0171byd8hdk1j823","reference":"BCB-84357","name":"Egger blanc alpin","description":null,"thickness":[0.8],"defaultLength":3050,"defaultWidth":1310,"defaultThickness":0.8,"isVariableLength":false,"pricePerM2":null,"pricePerMl":null,"pricePerUnit":null,"productType":"MELAMINE","material":"Stratifié","finish":"ST2","colorCode":null,"imageUrl":"https://www.bcommebois.fr/media/catalog/product/cache/9d39fcb1acae106e387daff4b9316804/8/1/81282-84356-84357-82558-84598-81915-w1100-blanc-alpin-egger.jpg","isActive":true,"stockStatus":"Sur commande","manufacturerRef":"W1100","createdAt":"2026-01-05T15:32:56.523Z","updatedAt":"2026-01-06T22:37:10.455Z","catalogue":{"name":"Bouney"},"category":null},{"id":"cmk1bkyij0175byd8fxxykhm0","reference":"BCB-93387","name":"Egger blanc alpin","description":null,"thickness":[0.8],"defaultLength":3050,"defaultWidth":1310,"defaultThickness":0.8,"isVariableLength":false,"pricePerM2":22.87,"pricePerMl":null,"pricePerUnit":null,"productType":"MELAMINE","material":"Stratifié","finish":"ST2","colorCode":null,"imageUrl":"https://www.bcommebois.fr/media/catalog/product/cache/9d39fcb1acae106e387daff4b9316804/8/1/81282-84356-84357-82558-84598-81915-w1100-blanc-alpin-egger.jpg","isActive":true,"stockStatus":"EN STOCK","manufacturerRef":"W1100","createdAt":"2026-01-05T15:32:56.636Z","updatedAt":"2026-01-06T22:37:10.855Z","catalogue":{"name":"Bouney"},"category":null},{"id":"cmjtw35at00tnbylw6532fnvu","reference":"BCB-PG/ST9","name":"Egger blanc alpin 19mm MELAMINE","description":null,"thickness":[19],"defaultLength":2800,"defaultWidth":2070,"defaultThickness":19,"isVariableLength":false,"pricePerM2":null,"pricePerMl":null,"pricePerUnit":null,"productType":"MELAMINE","material":null,"finish":null,"colorCode":null,"imageUrl":"https://www.bcommebois.fr/media/catalog/product/cache/f2d50050c3efa9786230e32651e641be/8/1/81282-84356-84357-82558-84598-81915-w1100-blanc-alpin-egger.jpg","isActive":true,"stockStatus":"Sur commande","manufacturerRef":"W1100","createdAt":"2025-12-31T10:44:48.149Z","updatedAt":"2025-12-31T10:45:06.386Z","catalogue":{"name":"Bouney"},"category":{"name":"Unis","slug":"unis","parent":{"name":"Stratifiés - Mélaminés - Compacts - Chants","slug":"stratifies-melamines-compacts-chants"}}},{"id":"cmjtw330500r5bylwt6v6dggf","reference":"BCB-PM/ST9","name":"Egger blanc alpin 19mm MELAMINE","description":null,"thickness":[19],"defaultLength":2800,"defaultWidth":2070,"defaultThickness":19,"isVariableLength":false,"pricePerM2":null,"pricePerMl":null,"pricePerUnit":null,"productType":"MELAMINE","material":null,"finish":null,"colorCode":null,"imageUrl":"https://www.bcommebois.fr/media/catalog/product/cache/f2d50050c3efa9786230e32651e641be/8/1/81282-84356-84357-82558-84598-81915-w1100-blanc-alpin-egger.jpg","isActive":true,"stockStatus":"Sur commande","manufacturerRef":"W1100","createdAt":"2025-12-31T10:44:45.173Z","updatedAt":"2025-12-31T10:45:06.463Z","catalogue":{"name":"Bouney"},"category":{"name":"Unis","slug":"unis","parent":{"name":"Stratifiés - Mélaminés - Compacts - Chants","slug":"stratifies-melamines-compacts-chants"}}},{"id":"cmjtw3k9v017fbylwcoqbvck4","reference":"BCB-85159","name":"Egger blanc alpin intégral","description":null,"thickness":[],"defaultLength":3050,"defaultWidth":1310,"defaultThickness":null,"isVariableLength":false,"pricePerM2":20.52,"pricePerMl":null,"pricePerUnit":null,"productType":"MELAMINE","material":"Stratifié","finish":null,"colorCode":null,"imageUrl":"https://www.bcommebois.fr/media/catalog/product/cache/9d39fcb1acae106e387daff4b9316804/8/5/85240-87010-w1101-st76-blanc-alpin-egger.jpg","isActive":true,"stockStatus":"EN STOCK","manufacturerRef":"W1101","createdAt":"2025-12-31T10:45:07.556Z","updatedAt":"2026-01-06T22:37:14.018Z","catalogue":{"name":"Bouney"},"category":{"name":"Unis","slug":"unis","parent":{"name":"Stratifiés - Mélaminés - Compacts - Chants","slug":"stratifies-melamines-compacts-chants"}}},{"id":"cmjtw30e000olbylw7qtoi6xj","reference":"BCB-81191","name":"Egger blanc cassé ST9","description":null,"thickness":[19],"defaultLength":2800,"defaultWidth":2070,"defaultThickness":19,"isVariableLength":false,"pricePerM2":11.79,"pricePerMl":null,"pricePerUnit":null,"productType":"MELAMINE","material":"Stratifié","finish":"ST9","colorCode":null,"imageUrl":"https://www.bcommebois.fr/media/catalog/product/cache/9d39fcb1acae106e387daff4b9316804/8/4/84373-81191-u216-blanc-casse-egger.jpg","isActive":true,"stockStatus":"EN STOCK","manufacturerRef":"U216","createdAt":"2025-12-31T10:44:41.784Z","updatedAt":"2026-01-06T22:33:00.639Z","catalogue":{"name":"Bouney"},"category":{"name":"Unis","slug":"unis","parent":{"name":"Stratifiés - Mélaminés - Compacts - Chants","slug":"stratifies-melamines-compacts-chants"}}},{"id":"cmjtw30fv00onbylwelfdy4bv","reference":"BCB-84373","name":"Egger blanc cassé ST9","description":null,"thickness":[0.8],"defaultLength":3050,"defaultWidth":1310,"defaultThickness":0.8,"isVariableLength":false,"pricePerM2":16.1,"pricePerMl":null,"pricePerUnit":null,"productType":"MELAMINE","material":"Stratifié","finish":"ST9","colorCode":null,"imageUrl":"https://www.bcommebois.fr/media/catalog/product/cache/9d39fcb1acae106e387daff4b9316804/8/4/84373-81191-u216-blanc-casse-egger.jpg","isActive":true,"stockStatus":"EN STOCK","manufacturerRef":"U216","createdAt":"2025-12-31T10:44:41.852Z","updatedAt":"2026-01-06T22:33:00.818Z","catalogue":{"name":"Bouney"},"category":{"name":"Unis","slug":"unis","parent":{"name":"Stratifiés - Mélaminés - Compacts - Chants","slug":"stratifies-melamines-compacts-chants"}}},{"id":"cmk1bkz5s017vbyd81skemhu6","reference":"BCB-93194","name":"Egger blanc craie","description":null,"thickness":[12],"defaultLength":2800,"defaultWidth":2070,"defaultThickness":12,"isVariableLength":false,"pricePerM2":8.12,"pricePerMl":null,"pricePerUnit":null,"productType":"MELAMINE","material":"Stratifié","finish":null,"colorCode":null,"imageUrl":"https://www.bcommebois.fr/media/catalog/product/cache/9d39fcb1acae106e387daff4b9316804/8/4/84348-87271-87274-87272-87273-82293-w908-blanc-craie-egger.jpg","isActive":true,"stockStatus":"EN STOCK","manufacturerRef":"W908","createdAt":"2026-01-05T15:32:57.473Z","updatedAt":"2026-01-06T22:37:19.374Z","catalogue":{"name":"Bouney"},"category":null},{"id":"cmk1bkz7l017xbyd8j4n9jjth","reference":"BCB-93193","name":"Egger blanc craie","description":null,"thickness":[16],"defaultLength":2800,"defaultWidth":2070,"defaultThickness":16,"isVariableLength":false,"pricePerM2":8.63,"pricePerMl":null,"pricePerUnit":null,"productType":"MELAMINE","material":"Stratifié","finish":null,"colorCode":null,"imageUrl":"https://www.bcommebois.fr/media/catalog/product/cache/9d39fcb1acae106e387daff4b9316804/8/4/84348-87271-87274-87272-87273-82293-w908-blanc-craie-egger.jpg","isActive":true,"stockStatus":"EN STOCK","manufacturerRef":"W908","createdAt":"2026-01-05T15:32:57.538Z","updatedAt":"2026-01-06T22:37:19.557Z","catalogue":{"name":"Bouney"},"category":null},{"id":"cmk1bkz29017rbyd8am5tcmlk","reference":"BCB-87273","name":"Egger blanc craie","description":null,"thickness":[22],"defaultLength":2800,"defaultWidth":2070,"defaultThickness":22,"isVariableLength":false,"pricePerM2":9.85,"pricePerMl":null,"pricePerUnit":null,"productType":"MELAMINE","material":"Stratifié","finish":null,"colorCode":null,"imageUrl":"https://www.bcommebois.fr/media/catalog/product/cache/9d39fcb1acae106e387daff4b9316804/8/4/84348-87271-87274-87272-87273-82293-w908-blanc-craie-egger.jpg","isActive":true,"stockStatus":"EN STOCK","manufacturerRef":"W908","createdAt":"2026-01-05T15:32:57.346Z","updatedAt":"2026-01-06T22:37:18.984Z","catalogue":{"name":"Bouney"},"category":null},{"id":"cmk1bkz9f017zbyd8z1vxviy9","reference":"BCB-84348","name":"Egger blanc craie","description":null,"thickness":[0.8],"defaultLength":3050,"defaultWidth":1310,"defaultThickness":0.8,"isVariableLength":false,"pricePerM2":12.56,"pricePerMl":null,"pricePerUnit":null,"productType":"MELAMINE","material":"Stratifié","finish":null,"colorCode":null,"imageUrl":"https://www.bcommebois.fr/media/catalog/product/cache/9d39fcb1acae106e387daff4b9316804/8/4/84348-87271-87274-87272-87273-82293-w908-blanc-craie-egger.jpg","isActive":true,"stockStatus":"EN STOCK","manufacturerRef":"W908","createdAt":"2026-01-05T15:32:57.604Z","updatedAt":"2026-01-06T22:37:19.754Z","catalogue":{"name":"Bouney"},"category":null},{"id":"cmk1bkz3y017tbyd8f9qivh4l","reference":"BCB-93530","name":"Egger blanc craie","description":null,"thickness":[8],"defaultLength":2800,"defaultWidth":2070,"defaultThickness":8,"isVariableLength":false,"pricePerM2":7.76,"pricePerMl":null,"pricePerUnit":null,"productType":"MELAMINE","material":"Stratifié","finish":null,"colorCode":null,"imageUrl":"https://www.bcommebois.fr/media/catalog/product/cache/9d39fcb1acae106e387daff4b9316804/8/4/84348-87271-87274-87272-87273-82293-w908-blanc-craie-egger.jpg","isActive":true,"stockStatus":"EN STOCK","manufacturerRef":"W908","createdAt":"2026-01-05T15:32:57.406Z","updatedAt":"2026-01-06T22:37:19.165Z","catalogue":{"name":"Bouney"},"category":null},{"id":"cmjtw30lk00otbylwvrk9xd7z","reference":"BCB-84374","name":"Egger blanc écru","description":null,"thickness":[0.8],"defaultLength":3050,"defaultWidth":1310,"defaultThickness":0.8,"isVariableLength":false,"pricePerM2":16.1,"pricePerMl":null,"pricePerUnit":null,"productType":"MELAMINE","material":"Stratifié","finish":null,"colorCode":null,"imageUrl":"https://www.bcommebois.fr/media/catalog/product/cache/9d39fcb1acae106e387daff4b9316804/8/4/84374-81197-u222-blanc-ecru-egger_4.jpg","isActive":true,"stockStatus":"EN STOCK","manufacturerRef":"U222","createdAt":"2025-12-31T10:44:42.056Z","updatedAt":"2026-01-06T22:33:03.597Z","catalogue":{"name":"Bouney"},"category":{"name":"Unis","slug":"unis","parent":{"name":"Stratifiés - Mélaminés - Compacts - Chants","slug":"stratifies-melamines-compacts-chants"}}},{"id":"cmjtw30jz00orbylwrlsl59m3","reference":"BCB-81197","name":"Egger blanc écru","description":null,"thickness":[19],"defaultLength":2800,"defaultWidth":2070,"defaultThickness":19,"isVariableLength":false,"pricePerM2":11.79,"pricePerMl":null,"pricePerUnit":null,"productType":"MELAMINE","material":"Stratifié","finish":null,"colorCode":null,"imageUrl":"https://www.bcommebois.fr/media/catalog/product/cache/9d39fcb1acae106e387daff4b9316804/8/4/84374-81197-u222-blanc-ecru-egger_4.jpg","isActive":true,"stockStatus":"EN STOCK","manufacturerRef":"U222","createdAt":"2025-12-31T10:44:41.999Z","updatedAt":"2026-01-06T22:33:03.402Z","catalogue":{"name":"Bouney"},"category":{"name":"Unis","slug":"unis","parent":{"name":"Stratifiés - Mélaminés - Compacts - Chants","slug":"stratifies-melamines-compacts-chants"}}},{"id":"cmk1bl0ty019pbyd82dpicy0g","reference":"BCB-93188","name":"Egger blanc kaolin","description":null,"thickness":[38],"defaultLength":4100,"defaultWidth":650,"defaultThickness":38,"isVariableLength":false,"pricePerM2":null,"pricePerMl":29.87,"pricePerUnit":null,"productType":"MELAMINE","material":"Stratifié","finish":null,"colorCode":null,"imageUrl":"https://www.bcommebois.fr/media/catalog/product/cache/9d39fcb1acae106e387daff4b9316804/8/0/80283-80284-80285-80290-80291-80287-85034-80286-81693-80278-80279-80280-80288-80289-80281-80282-83774-83775-w980-blanc-kaolin-egger_3.jpg","isActive":true,"stockStatus":"EN STOCK","manufacturerRef":"W980","createdAt":"2026-01-05T15:32:59.639Z","updatedAt":"2026-01-06T22:37:27.976Z","catalogue":{"name":"Bouney"},"category":null},{"id":"cmk1bkzs7018jbyd8yha54d0z","reference":"BCB-80288","name":"Egger blanc kaolin","description":null,"thickness":[16],"defaultLength":2800,"defaultWidth":2070,"defaultThickness":16,"isVariableLength":false,"pricePerM2":9.77,"pricePerMl":null,"pricePerUnit":null,"productType":"MELAMINE","material":"Stratifié","finish":null,"colorCode":null,"imageUrl":"https://www.bcommebois.fr/media/catalog/product/cache/9d39fcb1acae106e387daff4b9316804/8/0/80283-80284-80285-80290-80291-80287-85034-80286-81693-80278-80279-80280-80288-80289-80281-80282-83774-83775-w980-blanc-kaolin-egger_3.jpg","isActive":true,"stockStatus":"EN STOCK","manufacturerRef":"W980","createdAt":"2026-01-05T15:32:58.280Z","updatedAt":"2026-01-06T22:37:23.756Z","catalogue":{"name":"Bouney"},"category":null},{"id":"cmk1bkzqe018hbyd879sfg5u6","reference":"BCB-80291","name":"Egger blanc kaolin","description":null,"thickness":[19],"defaultLength":2800,"defaultWidth":2070,"defaultThickness":19,"isVariableLength":false,"pricePerM2":11.22,"pricePerMl":null,"pricePerUnit":null,"productType":"MELAMINE","material":"Stratifié","finish":null,"colorCode":null,"imageUrl":"https://www.bcommebois.fr/media/catalog/product/cache/9d39fcb1acae106e387daff4b9316804/8/0/80283-80284-80285-80290-80291-80287-85034-80286-81693-80278-80279-80280-80288-80289-80281-80282-83774-83775-w980-blanc-kaolin-egger_3.jpg","isActive":true,"stockStatus":"EN STOCK","manufacturerRef":"W980","createdAt":"2026-01-05T15:32:58.215Z","updatedAt":"2026-01-06T22:37:23.581Z","catalogue":{"name":"Bouney"},"category":null},{"id":"cmk1bkztn018lbyd8q9es6s6z","reference":"BCB-93151","name":"Egger blanc kaolin","description":null,"thickness":[8],"defaultLength":2800,"defaultWidth":2070,"defaultThickness":8,"isVariableLength":false,"pricePerM2":8.3,"pricePerMl":null,"pricePerUnit":null,"productType":"MELAMINE","material":"Stratifié","finish":null,"colorCode":null,"imageUrl":"https://www.bcommebois.fr/media/catalog/product/cache/9d39fcb1acae106e387daff4b9316804/8/0/80283-80284-80285-80290-80291-80287-85034-80286-81693-80278-80279-80280-80288-80289-80281-80282-83774-83775-w980-blanc-kaolin-egger_3.jpg","isActive":true,"stockStatus":"EN STOCK","manufacturerRef":"W980","createdAt":"2026-01-05T15:32:58.331Z","updatedAt":"2026-01-06T22:37:23.934Z","catalogue":{"name":"Bouney"},"category":null},{"id":"cmk1bl0dq0197byd8ufg41xbl","reference":"BCB-83774","name":"Egger blanc kaolin","description":null,"thickness":[0.8],"defaultLength":3050,"defaultWidth":1310,"defaultThickness":0.8,"isVariableLength":false,"pricePerM2":12.53,"pricePerMl":null,"pricePerUnit":null,"productType":"MELAMINE","material":"Stratifié","finish":null,"colorCode":null,"imageUrl":"https://www.bcommebois.fr/media/catalog/product/cache/9d39fcb1acae106e387daff4b9316804/8/0/80283-80284-80285-80290-80291-80287-85034-80286-81693-80278-80279-80280-80288-80289-80281-80282-83774-83775-w980-blanc-kaolin-egger_3.jpg","isActive":true,"stockStatus":"EN STOCK","manufacturerRef":"W980","createdAt":"2026-01-05T15:32:59.054Z","updatedAt":"2026-01-06T22:37:26.201Z","catalogue":{"name":"Bouney"},"category":null}],"total":240,"hasMore":true,"page":1,"limit":30,"parsed":{"productTypes":["MELAMINE"],"subcategories":[],"thickness":null,"searchTerms":["blanc"],"originalQuery":"mélaminé blanc"},"facets":{"genres":[{"label":"Standard","count":138,"searchTerm":"standard"},{"label":"Hydrofuge","count":8,"searchTerm":"hydrofuge"},{"label":"Ignifugé","count":5,"searchTerm":"ignifugé"}],"dimensions":[{"label":"2800 × 2070","count":183,"length":2800,"width":2070},{"label":"3050 × 1310","count":25,"length":3050,"width":1310},{"label":"2800 × 2100","count":8,"length":2800,"width":2100},{"label":"4100 × 650","count":4,"length":4100,"width":650},{"label":"4110 × 2070","count":4,"length":4110,"width":2070},{"label":"4150 × 2070","count":3,"length":4150,"width":2070},{"label":"2790 × 2060","count":3,"length":2790,"width":2060},{"label":"4100 × 900","count":2,"length":4100,"width":900},{"label":"2790 × 600","count":1,"length":2790,"width":600},{"label":"3050 × 2070","count":1,"length":3050,"width":2070}],"thicknesses":[{"value":0.8,"count":26},{"value":8,"count":32},{"value":12,"count":11},{"value":16,"count":16},{"value":19,"count":122},{"value":22,"count":9},{"value":25,"count":2},{"value":28,"count":2},{"value":30,"count":4},{"value":38,"count":13},{"value":50,"count":1}]}}